,ONI
01/01/1950,24.56
01/02/1950,25.07
01/03/1950,25.88
01/04/1950,26.29
01/05/1950,26.19
01/06/1950,26.47
01/07/1950,26.28
01/08/1950,25.88
01/09/1950,25.73
01/10/1950,25.68
01/11/1950,25.46
01/12/1950,25.29
01/01/1951,25.26
01/02/1951,25.72
01/03/1951,26.91
01/04/1951,27.59
01/05/1951,27.93
01/06/1951,27.73
01/07/1951,27.59
01/08/1951,27.01
01/09/1951,27.22
01/10/1951,27.2
01/11/1951,27.25
01/12/1951,26.92
01/01/1952,26.67
01/02/1952,26.75
01/03/1952,27.19
01/04/1952,27.81
01/05/1952,27.79
01/06/1952,27.18
01/07/1952,26.52
01/08/1952,26.3
01/09/1952,26.35
01/10/1952,26.25
01/11/1952,25.92
01/12/1952,26.21
01/01/1953,26.74
01/02/1953,27
01/03/1953,27.57
01/04/1953,28.03
01/05/1953,28.28
01/06/1953,28.12
01/07/1953,27.42
01/08/1953,26.93
01/09/1953,27
01/10/1953,26.87
01/11/1953,26.88
01/12/1953,27.01
01/01/1954,26.98
01/02/1954,27.03
01/03/1954,26.91
01/04/1954,26.65
01/05/1954,27.11
01/06/1954,26.79
01/07/1954,26.1
01/08/1954,25.42
01/09/1954,25.11
01/10/1954,25.22
01/11/1954,25.56
01/12/1954,25.26
01/01/1955,25.62
01/02/1955,25.82
01/03/1955,26.23
01/04/1955,26.61
01/05/1955,26.65
01/06/1955,26.54
01/07/1955,26.14
01/08/1955,25.5
01/09/1955,25.28
01/10/1955,24.41
01/11/1955,24.25
01/12/1955,24.57
01/01/1956,25.34
01/02/1956,25.77
01/03/1956,26.47
01/04/1956,26.86
01/05/1956,27.13
01/06/1956,26.81
01/07/1956,26.22
01/08/1956,25.67
01/09/1956,25.72
01/10/1956,25.74
01/11/1956,25.56
01/12/1956,25.71
01/01/1957,26.04
01/02/1957,26.54
01/03/1957,27.46
01/04/1957,28.23
01/05/1957,28.54
01/06/1957,28.35
01/07/1957,28.15
01/08/1957,27.68
01/09/1957,27.42
01/10/1957,27.41
01/11/1957,27.62
01/12/1957,27.89
01/01/1958,28.32
01/02/1958,28.24
01/03/1958,28.27
01/04/1958,28.28
01/05/1958,28.3
01/06/1958,27.98
01/07/1958,27.31
01/08/1958,26.84
01/09/1958,26.4
01/10/1958,26.45
01/11/1958,26.75
01/12/1958,26.61
01/01/1959,27.07
01/02/1959,27.18
01/03/1959,27.47
01/04/1959,27.88
01/05/1959,27.69
01/06/1959,27.36
01/07/1959,26.43
01/08/1959,26.09
01/09/1959,25.92
01/10/1959,26.24
01/11/1959,26.04
01/12/1959,26.18
01/01/1960,26.26
01/02/1960,26.29
01/03/1960,26.99
01/04/1960,27.49
01/05/1960,27.68
01/06/1960,27.23
01/07/1960,26.87
01/08/1960,26.69
01/09/1960,26.43
01/10/1960,26.21
01/11/1960,26.25
01/12/1960,26.22
01/01/1961,26.23
01/02/1961,26.56
01/03/1961,26.94
01/04/1961,27.37
01/05/1961,27.75
01/06/1961,27.66
01/07/1961,26.87
01/08/1961,26.18
01/09/1961,25.78
01/10/1961,25.7
01/11/1961,26.07
01/12/1961,25.98
01/01/1962,25.96
01/02/1962,26.2
01/03/1962,26.81
01/04/1962,27.13
01/05/1962,27.05
01/06/1962,27.08
01/07/1962,26.75
01/08/1962,26.32
01/09/1962,25.93
01/10/1962,25.96
01/11/1962,25.75
01/12/1962,25.67
01/01/1963,25.77
01/02/1963,26.23
01/03/1963,27.18
01/04/1963,27.79
01/05/1963,27.63
01/06/1963,27.61
01/07/1963,27.77
01/08/1963,27.47
01/09/1963,27.39
01/10/1963,27.35
01/11/1963,27.46
01/12/1963,27.61
01/01/1964,27.33
01/02/1964,27.13
01/03/1964,27.02
01/04/1964,26.95
01/05/1964,26.82
01/06/1964,26.58
01/07/1964,26.33
01/08/1964,25.59
01/09/1964,25.32
01/10/1964,25.36
01/11/1964,25.26
01/12/1964,25.22
01/01/1965,25.66
01/02/1965,26.2
01/03/1965,26.95
01/04/1965,27.38
01/05/1965,27.99
01/06/1965,28.08
01/07/1965,27.89
01/08/1965,27.96
01/09/1965,28
01/10/1965,28.15
01/11/1965,28.11
01/12/1965,27.95
01/01/1966,27.66
01/02/1966,27.55
01/03/1966,28.21
01/04/1966,28.16
01/05/1966,27.55
01/06/1966,27.63
01/07/1966,27.32
01/08/1966,26.48
01/09/1966,26.27
01/10/1966,26.22
01/11/1966,26.23
01/12/1966,26.02
01/01/1967,25.88
01/02/1967,26.12
01/03/1967,26.51
01/04/1967,26.75
01/05/1967,27.35
01/06/1967,27.46
01/07/1967,26.96
01/08/1967,26.43
01/09/1967,25.85
01/10/1967,25.96
01/11/1967,26.07
01/12/1967,25.95
01/01/1968,25.69
01/02/1968,25.69
01/03/1968,26.34
01/04/1968,27.1
01/05/1968,27.19
01/06/1968,27.87
01/07/1968,27.57
01/08/1968,27
01/09/1968,26.72
01/10/1968,26.75
01/11/1968,27.2
01/12/1968,27.27
01/01/1969,27.5
01/02/1969,27.86
01/03/1969,27.83
01/04/1969,28.14
01/05/1969,28.29
01/06/1969,27.69
01/07/1969,27.08
01/08/1969,27.02
01/09/1969,27.15
01/10/1969,27.34
01/11/1969,27.11
01/12/1969,26.98
01/01/1970,26.84
01/02/1970,26.96
01/03/1970,27.15
01/04/1970,27.75
01/05/1970,27.63
01/06/1970,27.03
01/07/1970,26.21
01/08/1970,25.59
01/09/1970,25.64
01/10/1970,25.59
01/11/1970,25.57
01/12/1970,25.27
01/01/1971,24.82
01/02/1971,25.2
01/03/1971,25.93
01/04/1971,26.64
01/05/1971,26.95
01/06/1971,26.6
01/07/1971,26.12
01/08/1971,25.74
01/09/1971,25.71
01/10/1971,25.47
01/11/1971,25.55
01/12/1971,25.37
01/01/1972,25.63
01/02/1972,26.31
01/03/1972,27.09
01/04/1972,27.9
01/05/1972,28.31
01/06/1972,28.18
01/07/1972,28.14
01/08/1972,27.94
01/09/1972,27.94
01/10/1972,28.25
01/11/1972,28.6
01/12/1972,28.68
01/01/1973,28.33
01/02/1973,27.95
01/03/1973,27.56
01/04/1973,27.25
01/05/1973,26.97
01/06/1973,26.55
01/07/1973,25.76
01/08/1973,25.23
01/09/1973,25.06
01/10/1973,24.74
01/11/1973,24.34
01/12/1973,24.34
01/01/1974,24.47
01/02/1974,25.11
01/03/1974,25.86
01/04/1974,26.48
01/05/1974,26.65
01/06/1974,26.53
01/07/1974,26.39
01/08/1974,26.33
01/09/1974,26.07
01/10/1974,25.77
01/11/1974,25.61
01/12/1974,25.63
01/01/1975,26.1
01/02/1975,26.08
01/03/1975,26.21
01/04/1975,26.87
01/05/1975,26.8
01/06/1975,26.23
01/07/1975,25.9
01/08/1975,25.34
01/09/1975,25.05
01/10/1975,24.89
01/11/1975,25.05
01/12/1975,24.67
01/01/1976,24.54
01/02/1976,25.49
01/03/1976,26.46
01/04/1976,26.89
01/05/1976,27.2
01/06/1976,27.35
01/07/1976,27.12
01/08/1976,26.98
01/09/1976,27.02
01/10/1976,27.46
01/11/1976,27.41
01/12/1976,27.08
01/01/1977,27.32
01/02/1977,27.13
01/03/1977,27.48
01/04/1977,27.45
01/05/1977,27.72
01/06/1977,27.74
01/07/1977,27.38
01/08/1977,26.84
01/09/1977,27.11
01/10/1977,27.34
01/11/1977,27.18
01/12/1977,27.29
01/01/1978,27.17
01/02/1978,27.01
01/03/1978,27.1
01/04/1978,27.12
01/05/1978,27.2
01/06/1978,27.02
01/07/1978,26.74
01/08/1978,26.07
01/09/1978,26.01
01/10/1978,26.25
01/11/1978,26.32
01/12/1978,26.54
01/01/1979,26.42
01/02/1979,26.54
01/03/1979,27.28
01/04/1979,27.84
01/05/1979,27.69
01/06/1979,27.43
01/07/1979,26.82
01/08/1979,26.75
01/09/1979,26.99
01/10/1979,26.83
01/11/1979,26.99
01/12/1979,27.11
01/01/1980,27.09
01/02/1980,26.98
01/03/1980,27.32
01/04/1980,27.76
01/05/1980,28.02
01/06/1980,27.94
01/07/1980,27.23
01/08/1980,26.48
01/09/1980,26.44
01/10/1980,26.46
01/11/1980,26.6
01/12/1980,26.65
01/01/1981,26.19
01/02/1981,26.12
01/03/1981,26.66
01/04/1981,27.3
01/05/1981,27.36
01/06/1981,27.27
01/07/1981,26.65
01/08/1981,26.32
01/09/1981,26.52
01/10/1981,26.42
01/11/1981,26.29
01/12/1981,26.4
01/01/1982,26.68
01/02/1982,26.6
01/03/1982,27.42
01/04/1982,28.03
01/05/1982,28.39
01/06/1982,28.26
01/07/1982,27.66
01/08/1982,27.58
01/09/1982,28.2
01/10/1982,28.69
01/11/1982,28.61
01/12/1982,28.79
01/01/1983,28.88
01/02/1983,28.69
01/03/1983,28.67
01/04/1983,28.77
01/05/1983,28.84
01/06/1983,28.28
01/07/1983,27.19
01/08/1983,26.6
01/09/1983,26.2
01/10/1983,25.57
01/11/1983,25.42
01/12/1983,25.58
01/01/1984,25.88
01/02/1984,26.57
01/03/1984,26.78
01/04/1984,27.15
01/05/1984,27.2
01/06/1984,26.83
01/07/1984,26.78
01/08/1984,26.6
01/09/1984,26.38
01/10/1984,26.04
01/11/1984,25.52
01/12/1984,25.26
01/01/1985,25.39
01/02/1985,26.04
01/03/1985,26.5
01/04/1985,26.65
01/05/1985,26.91
01/06/1985,26.81
01/07/1985,26.55
01/08/1985,26.29
01/09/1985,26.02
01/10/1985,26.23
01/11/1985,26.33
01/12/1985,26.19
01/01/1986,25.89
01/02/1986,26.06
01/03/1986,26.88
01/04/1986,27.49
01/05/1986,27.41
01/06/1986,27.42
01/07/1986,27.18
01/08/1986,27.17
01/09/1986,27.24
01/10/1986,27.51
01/11/1986,27.7
01/12/1986,27.71
01/01/1987,27.68
01/02/1987,27.89
01/03/1987,28.27
01/04/1987,28.4
01/05/1987,28.56
01/06/1987,28.64
01/07/1987,28.58
01/08/1987,28.41
01/09/1987,28.36
01/10/1987,27.95
01/11/1987,27.77
01/12/1987,27.54
01/01/1988,27.45
01/02/1988,27.04
01/03/1988,27.39
01/04/1988,27.38
01/05/1988,26.68
01/06/1988,25.99
01/07/1988,25.56
01/08/1988,25.67
01/09/1988,25.72
01/10/1988,24.82
01/11/1988,24.66
01/12/1988,24.64
01/01/1989,24.59
01/02/1989,25.29
01/03/1989,26.09
01/04/1989,26.75
01/05/1989,27.07
01/06/1989,27.14
01/07/1989,26.71
01/08/1989,26.32
01/09/1989,26.41
01/10/1989,26.32
01/11/1989,26.25
01/12/1989,26.46
01/01/1990,26.56
01/02/1990,26.98
01/03/1990,27.34
01/04/1990,27.9
01/05/1990,28.02
01/06/1990,27.65
01/07/1990,27.38
01/08/1990,27.07
01/09/1990,26.94
01/10/1990,26.93
01/11/1990,26.81
01/12/1990,26.96
01/01/1991,27.04
01/02/1991,27.08
01/03/1991,27.33
01/04/1991,28.02
01/05/1991,28.2
01/06/1991,28.25
01/07/1991,28.05
01/08/1991,27.53
01/09/1991,27.14
01/10/1991,27.58
01/11/1991,27.89
01/12/1991,28.28
01/01/1992,28.37
01/02/1992,28.53
01/03/1992,28.66
01/04/1992,29.02
01/05/1992,28.97
01/06/1992,28.3
01/07/1992,27.51
01/08/1992,26.91
01/09/1992,26.66
01/10/1992,26.42
01/11/1992,26.42
01/12/1992,26.45
01/01/1993,26.7
01/02/1993,27.17
01/03/1993,27.68
01/04/1993,28.41
01/05/1993,28.71
01/06/1993,28.08
01/07/1993,27.52
01/08/1993,26.99
01/09/1993,27.07
01/10/1993,26.78
01/11/1993,26.71
01/12/1993,26.76
01/01/1994,26.65
01/02/1994,26.82
01/03/1994,27.39
01/04/1994,28.08
01/05/1994,28.24
01/06/1994,28.04
01/07/1994,27.54
01/08/1994,27.38
01/09/1994,27.19
01/10/1994,27.47
01/11/1994,27.81
01/12/1994,27.85
01/01/1995,27.57
01/02/1995,27.49
01/03/1995,27.76
01/04/1995,28.11
01/05/1995,27.83
01/06/1995,27.59
01/07/1995,27.08
01/08/1995,26.23
01/09/1995,25.88
01/10/1995,25.84
01/11/1995,25.61
01/12/1995,25.66
01/01/1996,25.7
01/02/1996,25.91
01/03/1996,26.69
01/04/1996,27.36
01/05/1996,27.55
01/06/1996,27.29
01/07/1996,26.85
01/08/1996,26.64
01/09/1996,26.27
01/10/1996,26.27
01/11/1996,26.29
01/12/1996,25.96
01/01/1997,26.02
01/02/1997,26.39
01/03/1997,27.05
01/04/1997,27.99
01/05/1997,28.58
01/06/1997,28.81
01/07/1997,28.85
01/08/1997,28.74
01/09/1997,28.84
01/10/1997,29.07
01/11/1997,29.11
01/12/1997,28.89
01/01/1998,28.93
01/02/1998,28.79
01/03/1998,28.63
01/04/1998,28.61
01/05/1998,28.52
01/06/1998,27.35
01/07/1998,26.32
01/08/1998,25.59
01/09/1998,25.47
01/10/1998,25.26
01/11/1998,25.25
01/12/1998,24.92
01/01/1999,24.87
01/02/1999,25.44
01/03/1999,26.34
01/04/1999,26.71
01/05/1999,26.79
01/06/1999,26.54
01/07/1999,26.13
01/08/1999,25.64
01/09/1999,25.63
01/10/1999,25.48
01/11/1999,25.13
01/12/1999,24.87
01/01/2000,24.79
01/02/2000,25.23
01/03/2000,26.31
01/04/2000,26.96
01/05/2000,27.08
01/06/2000,26.95
01/07/2000,26.63
01/08/2000,26.37
01/09/2000,26.2
01/10/2000,26.02
01/11/2000,25.92
01/12/2000,25.69
01/01/2001,25.82
01/02/2001,26.14
01/03/2001,26.82
01/04/2001,27.34
01/05/2001,27.6
01/06/2001,27.54
01/07/2001,27.25
01/08/2001,26.8
01/09/2001,26.52
01/10/2001,26.57
01/11/2001,26.34
01/12/2001,26.2
01/01/2002,26.4
01/02/2002,26.72
01/03/2002,27.3
01/04/2002,27.85
01/05/2002,28.24
01/06/2002,28.44
01/07/2002,28.03
01/08/2002,27.72
01/09/2002,27.81
01/10/2002,27.96
01/11/2002,28.16
01/12/2002,27.97
01/01/2003,27.16
01/02/2003,27.4
01/03/2003,27.66
01/04/2003,27.69
01/05/2003,27.32
01/06/2003,27.44
01/07/2003,27.5
01/08/2003,27.11
01/09/2003,26.98
01/10/2003,27.14
01/11/2003,27.04
01/12/2003,27.04
01/01/2004,26.83
01/02/2004,27
01/03/2004,27.41
01/04/2004,27.89
01/05/2004,27.99
01/06/2004,27.85
01/07/2004,27.77
01/08/2004,27.6
01/09/2004,27.52
01/10/2004,27.44
01/11/2004,27.36
01/12/2004,27.34
01/01/2005,27.21
01/02/2005,27.12
01/03/2005,27.74
01/04/2005,28.09
01/05/2005,28.24
01/06/2005,27.77
01/07/2005,27.07
01/08/2005,26.8
01/09/2005,26.68
01/10/2005,26.65
01/11/2005,26.11
01/12/2005,25.68
01/01/2006,25.64
01/02/2006,26.09
01/03/2006,26.58
01/04/2006,27.51
01/05/2006,27.85
01/06/2006,27.73
01/07/2006,27.3
01/08/2006,27.16
01/09/2006,27.32
01/10/2006,27.42
01/11/2006,27.7
01/12/2006,27.74
01/01/2007,27.25
01/02/2007,26.9
01/03/2007,27.12
01/04/2007,27.51
01/05/2007,27.46
01/06/2007,27.37
01/07/2007,26.7
01/08/2007,26.13
01/09/2007,25.61
01/10/2007,25.33
01/11/2007,25.17
01/12/2007,25.02
01/01/2008,24.87
01/02/2008,25.1
01/03/2008,26.09
01/04/2008,26.84
01/05/2008,27.09
01/06/2008,27.04
01/07/2008,26.99
01/08/2008,26.72
01/09/2008,26.47
01/10/2008,26.37
01/11/2008,26.25
01/12/2008,25.74
01/01/2009,25.67
01/02/2009,25.97
01/03/2009,26.6
01/04/2009,27.48
01/05/2009,27.99
01/06/2009,28.04
01/07/2009,27.77
01/08/2009,27.42
01/09/2009,27.4
01/10/2009,27.61
01/11/2009,28.15
01/12/2009,28.33
01/01/2010,28.06
01/02/2010,28.01
01/03/2010,28.19
01/04/2010,28.21
01/05/2010,27.72
01/06/2010,27.04
01/07/2010,26.22
01/08/2010,25.47
01/09/2010,25.12
01/10/2010,25.03
01/11/2010,25.06
01/12/2010,25
01/01/2011,25.01
01/02/2011,25.66
01/03/2011,26.38
01/04/2011,27.07
01/05/2011,27.41
01/06/2011,27.35
01/07/2011,26.87
01/08/2011,26.21
01/09/2011,25.92
01/10/2011,25.67
01/11/2011,25.52
01/12/2011,25.55
01/01/2012,25.68
01/02/2012,26.1
01/03/2012,26.69
01/04/2012,27.33
01/05/2012,27.62
01/06/2012,27.75
01/07/2012,27.54
01/08/2012,27.32
01/09/2012,27.1
01/10/2012,26.98
01/11/2012,26.86
01/12/2012,26.35
01/01/2013,26.02
01/02/2013,26.25
01/03/2013,27.04
01/04/2013,27.58
01/05/2013,27.53
01/06/2013,27.3
01/07/2013,26.9
01/08/2013,26.47
01/09/2013,26.53
01/10/2013,26.52
01/11/2013,26.56
01/12/2013,26.43
01/01/2014,26.06
01/02/2014,26.15
01/03/2014,27.02
01/04/2014,27.91
01/05/2014,28.26
01/06/2014,27.96
01/07/2014,27.23
01/08/2014,26.83
01/09/2014,27.01
01/10/2014,27.16
01/11/2014,27.46
01/12/2014,27.32
01/01/2015,27.06
01/02/2015,27.18
01/03/2015,27.77
01/04/2015,28.53
01/05/2015,28.85
01/06/2015,28.9
01/07/2015,28.75
01/08/2015,28.78
01/09/2015,28.92
01/10/2015,29.07
01/11/2015,29.41
01/12/2015,29.26
01/01/2016,29.11
01/02/2016,29
01/03/2016,28.9
01/04/2016,28.73
01/05/2016,28.24
01/06/2016,27.7
01/07/2016,26.82
01/08/2016,26.28
01/09/2016,26.15
01/10/2016,25.98
01/11/2016,25.95
01/12/2016,26.1
01/01/2017,26.12
01/02/2017,26.68
01/03/2017,27.33
01/04/2017,28.04
01/05/2017,28.3
01/06/2017,28.06
01/07/2017,27.54
01/08/2017,26.7
01/09/2017,26.29
01/10/2017,26.15
01/11/2017,25.74
01/12/2017,25.62
01/01/2018,25.58
01/02/2018,25.98
01/03/2018,26.44
