"","Percentil 1","Percentil 5","Promedio","Percentil 95","Percentil 99","Desviacion","Prob. de superar"
"2020-01-01",0.056921901430983,0.0598612649752754,0.0704153968745331,0.084951536919857,0.0923374650003183,0.00761082143010767,0.807
"2021-01-01",0.0530338662120456,0.0568203886627885,0.0695465486017428,0.0874215359765074,0.0970915020242915,0.00947759198687715,0.712
"2022-01-01",0.0554249814541403,0.0584547183063382,0.0726810953832796,0.0934102748048107,0.109944077760028,0.0113260485802771,0.868
"2023-01-01",0.0508164695130736,0.0536542669274306,0.0714446233909535,0.0986720712429295,0.115730317009466,0.0137993114816576,1
"2024-01-01",0.0483901975863164,0.0526793551980705,0.0716728520078793,0.099751829346487,0.116926556380659,0.0152221214604752,0.999
"2025-01-01",0.044495046433495,0.0481195658871728,0.0649818065664452,0.0913190420567811,0.113870632487093,0.0142054325825549,1
"2026-01-01",0.0455235710309183,0.0480382367158098,0.0667132749594095,0.0962329197008788,0.130926358838599,0.0163027980117195,1
"2027-01-01",0.0458345544357,0.0491395286130285,0.0676268206603002,0.100102115029763,0.126701922115584,0.0161210135605219,1
"2028-01-01",0.0470951877700455,0.0506597922433402,0.0701125855921796,0.10330262621503,0.125634931575059,0.0174653351821139,1
"2029-01-01",0.0489565236010694,0.0530365091454781,0.0795463783790281,0.128336653892156,0.165329578201224,0.0238146087174515,1
"2030-01-01",0.0426426348059668,0.0466363487071063,0.0766782369841577,0.129673803503902,0.181652891498375,0.0278395059568477,1
"2031-01-01",0.0386730770493008,0.0436504578174515,0.0740203670715331,0.130120913798453,0.174533162259496,0.0285669015696977,1
"2032-01-01",0.0381793688862542,0.0423022141030417,0.0741515495852059,0.131881697959789,0.184760770131841,0.0305106519799672,1
