"","MAE Dentro","MAE Fuera"
"Logit",0.356306203068861,0.392170723319667
"Probit",0.364494202374161,0.399713241095871
"RF",0.359191763576769,0.413957907662459
"NNET",0.292552914190387,0.401873265494912
"Combinacion",0.278722827225442,0.40849967369033
